# this is just a comment or description of the data
# temp     ;    293
# pressure ; 1013 14  bar
# name     ; temp1bsa
&doit
0,854979E-01  0,178301E+03  0,383044E+02
0,882382E-01  0,156139E+03  0,135279E+02
0,909785E-01  *             0,110681E+02
0,937188E-01  0,147430E+03  0,954762E+01
0,964591E-01  0,141615E+03  0,846613E+01
nan           nan           0
